{
  "project_info": {
    "project_number": "86479957093",
    "project_id": "squeakyclean-11088",
    "storage_bucket": "squeakyclean-11088.appspot.com"
  },
  "client": [
    {
      "client_info": {
        "mobilesdk_app_id": "1:86479957093:android:f39ec6e6d34ca35e89aa8c",
        "android_client_info": {
          "package_name": "com.squeakyclean.squeakyfirebase"
        }
      },
      "oauth_client": [
        {
          "client_id": "86479957093-sfrtfalj2vk4ti8c95lf3eccq6179pvh.apps.googleusercontent.com",
          "client_type": 3
        }
      ],
      "api_key": [
        {
          "current_key": "AIzaSyAZLoMPbd97cST7jT20HmY0NCQuRcBv_c0"
        }
      ],
      "services": {
        "appinvite_service": {
          "other_platform_oauth_client": [
            {
              "client_id": "86479957093-sfrtfalj2vk4ti8c95lf3eccq6179pvh.apps.googleusercontent.com",
              "client_type": 3
            }
          ]
        }
      }
    }
  ],
  "configuration_version": "1"
}